-1.7
-encoding
UTF-8
-outxml
-source
1.7
-target
1.7
-classpath
/usr/local/pr/bamboo/apache-maven-3.0.4/m2Arq/org/codehaus/jackson/jackson-core-asl/1.8.0/jackson-core-asl-1.8.0.jar:/usr/local/pr/bamboo/apache-maven-3.0.4/m2Arq/org/codehaus/jackson/jackson-core-lgpl/1.8.0/jackson-core-lgpl-1.8.0.jar:/usr/local/pr/bamboo/apache-maven-3.0.4/m2Arq/org/codehaus/jackson/jackson-mapper-asl/1.8.0/jackson-mapper-asl-1.8.0.jar:/usr/local/pr/bamboo/apache-maven-3.0.4/m2Arq/org/codehaus/jackson/jackson-mapper-lgpl/1.8.0/jackson-mapper-lgpl-1.8.0.jar:/usr/local/pr/bamboo/apache-maven-3.0.4/m2Arq/org/springframework/spring-test/3.2.3.RELEASE/spring-test-3.2.3.RELEASE.jar:/usr/local/pr/bamboo/apache-maven-3.0.4/m2Arq/org/apache/cxf/cxf-rt-frontend-jaxws/2.6.10/cxf-rt-frontend-jaxws-2.6.10.jar:/usr/local/pr/bamboo/apache-maven-3.0.4/m2Arq/org/apache/cxf/cxf-rt-transports-http/2.6.10/cxf-rt-transports-http-2.6.10.jar:/usr/local/pr/bamboo/apache-maven-3.0.4/m2Arq/org/apache/cxf/cxf-rt-frontend-jaxrs/2.6.10/cxf-rt-frontend-jaxrs-2.6.10.jar:/usr/local/pr/bamboo/apache-maven-3.0.4/m2Arq/log4j/log4j/1.2.17/log4j-1.2.17.jar:/usr/local/pr/bamboo/apache-maven-3.0.4/m2Arq/org/aspectj/aspectjrt/1.7.4/aspectjrt-1.7.4.jar:/usr/local/pr/bamboo/apache-maven-3.0.4/m2Arq/org/aspectj/aspectjweaver/1.7.4/aspectjweaver-1.7.4.jar:/usr/local/pr/bamboo/apache-maven-3.0.4/m2Arq/org/aspectj/aspectjtools/1.7.4/aspectjtools-1.7.4.jar:/usr/local/pr/bamboo/apache-maven-3.0.4/m2Arq/org/springframework/spring-aspects/3.2.3.RELEASE/spring-aspects-3.2.3.RELEASE.jar:/usr/local/pr/bamboo/apache-maven-3.0.4/m2Arq/org/springframework/spring-tx/3.2.3.RELEASE/spring-tx-3.2.3.RELEASE.jar:/usr/local/pr/bamboo/apache-maven-3.0.4/m2Arq/javax/persistence/persistence-api/1.0/persistence-api-1.0.jar:/usr/local/pr/bamboo/apache-maven-3.0.4/m2Arq/commons-lang/commons-lang/2.6/commons-lang-2.6.jar:/usr/local/pr/bamboo/apache-maven-3.0.4/m2Arq/org/apache/httpcomponents/httpclient/4.4/httpclient-4.4.jar:/usr/local/pr/bamboo/apache-maven-3.0.4/m2Arq/commons-httpclient/commons-httpclient/3.1/commons-httpclient-3.1.jar:/usr/local/pr/bamboo/apache-maven-3.0.4/m2Arq/com/bbva/jee/arq/spring/core/arq-spring-core-spi/3.6.3/arq-spring-core-spi-3.6.3.jar:/usr/local/pr/bamboo/apache-maven-3.0.4/m2Arq/com/bbva/jee/arq/spring/core/arq-spring-core-api/3.7.0/arq-spring-core-api-3.7.0.jar:/usr/local/pr/bamboo/apache-maven-3.0.4/m2Arq/com/bbva/jee/arq/spring/core/arq-spring-connector-host-apx/3.7.1/arq-spring-connector-host-apx-3.7.1.jar:/usr/local/pr/bamboo/apache-maven-3.0.4/m2Arq/com/bbva/jee/arq/spring/core/arq-spring-servicing-core/3.7.1/arq-spring-servicing-core-3.7.1.jar:/usr/local/pr/bamboo/apache-maven-3.0.4/m2Arq/junit/junit/4.11/junit-4.11.jar:/usr/local/pr/bamboo/apache-maven-3.0.4/m2Arq/org/springframework/spring-core/3.2.3.RELEASE/spring-core-3.2.3.RELEASE.jar:/usr/local/pr/bamboo/apache-maven-3.0.4/m2Arq/xml-resolver/xml-resolver/1.2/xml-resolver-1.2.jar:/usr/local/pr/bamboo/apache-maven-3.0.4/m2Arq/asm/asm/3.3.1/asm-3.3.1.jar:/usr/local/pr/bamboo/apache-maven-3.0.4/m2Arq/org/apache/cxf/cxf-api/2.6.10/cxf-api-2.6.10.jar:/usr/local/pr/bamboo/apache-maven-3.0.4/m2Arq/org/codehaus/woodstox/woodstox-core-asl/4.2.0/woodstox-core-asl-4.2.0.jar:/usr/local/pr/bamboo/apache-maven-3.0.4/m2Arq/org/codehaus/woodstox/stax2-api/3.1.1/stax2-api-3.1.1.jar:/usr/local/pr/bamboo/apache-maven-3.0.4/m2Arq/org/apache/ws/xmlschema/xmlschema-core/2.0.3/xmlschema-core-2.0.3.jar:/usr/local/pr/bamboo/apache-maven-3.0.4/m2Arq/org/apache/geronimo/specs/geronimo-javamail_1.4_spec/1.7.1/geronimo-javamail_1.4_spec-1.7.1.jar:/usr/local/pr/bamboo/apache-maven-3.0.4/m2Arq/wsdl4j/wsdl4j/1.6.3/wsdl4j-1.6.3.jar:/usr/local/pr/bamboo/apache-maven-3.0.4/m2Arq/org/apache/cxf/cxf-rt-core/2.6.10/cxf-rt-core-2.6.10.jar:/usr/local/pr/bamboo/apache-maven-3.0.4/m2Arq/com/sun/xml/bind/jaxb-impl/2.2.5.1/jaxb-impl-2.2.5.1.jar:/usr/local/pr/bamboo/apache-maven-3.0.4/m2Arq/org/apache/cxf/cxf-rt-bindings-soap/2.6.10/cxf-rt-bindings-soap-2.6.10.jar:/usr/local/pr/bamboo/apache-maven-3.0.4/m2Arq/org/apache/cxf/cxf-rt-databinding-jaxb/2.6.10/cxf-rt-databinding-jaxb-2.6.10.jar:/usr/local/pr/bamboo/apache-maven-3.0.4/m2Arq/org/apache/cxf/cxf-rt-bindings-xml/2.6.10/cxf-rt-bindings-xml-2.6.10.jar:/usr/local/pr/bamboo/apache-maven-3.0.4/m2Arq/org/apache/cxf/cxf-rt-frontend-simple/2.6.10/cxf-rt-frontend-simple-2.6.10.jar:/usr/local/pr/bamboo/apache-maven-3.0.4/m2Arq/org/apache/cxf/cxf-rt-ws-addr/2.6.10/cxf-rt-ws-addr-2.6.10.jar:/usr/local/pr/bamboo/apache-maven-3.0.4/m2Arq/org/apache/cxf/cxf-rt-ws-policy/2.6.10/cxf-rt-ws-policy-2.6.10.jar:/usr/local/pr/bamboo/apache-maven-3.0.4/m2Arq/org/apache/neethi/neethi/3.0.2/neethi-3.0.2.jar:/usr/local/pr/bamboo/apache-maven-3.0.4/m2Arq/javax/ws/rs/jsr311-api/1.1.1/jsr311-api-1.1.1.jar:/usr/local/pr/bamboo/apache-maven-3.0.4/m2Arq/org/springframework/spring-context-support/3.2.3.RELEASE/spring-context-support-3.2.3.RELEASE.jar:/usr/local/pr/bamboo/apache-maven-3.0.4/m2Arq/aopalliance/aopalliance/1.0/aopalliance-1.0.jar:/usr/local/pr/bamboo/apache-maven-3.0.4/m2Arq/org/springframework/spring-beans/3.2.3.RELEASE/spring-beans-3.2.3.RELEASE.jar:/usr/local/pr/bamboo/apache-maven-3.0.4/m2Arq/org/apache/httpcomponents/httpcore/4.4/httpcore-4.4.jar:/usr/local/pr/bamboo/apache-maven-3.0.4/m2Arq/commons-logging/commons-logging/1.2/commons-logging-1.2.jar:/usr/local/pr/bamboo/apache-maven-3.0.4/m2Arq/commons-codec/commons-codec/1.9/commons-codec-1.9.jar:/usr/local/pr/bamboo/apache-maven-3.0.4/m2Arq/org/apache/geronimo/specs/geronimo-commonj_1.1_spec/1.0/geronimo-commonj_1.1_spec-1.0.jar:/usr/local/pr/bamboo/apache-maven-3.0.4/m2Arq/javax/resource/connector-api/1.5/connector-api-1.5.jar:/usr/local/pr/bamboo/apache-maven-3.0.4/m2Arq/org/springframework/spring-context/3.2.3.RELEASE/spring-context-3.2.3.RELEASE.jar:/usr/local/pr/bamboo/apache-maven-3.0.4/m2Arq/org/springframework/spring-expression/3.2.3.RELEASE/spring-expression-3.2.3.RELEASE.jar:/usr/local/pr/bamboo/apache-maven-3.0.4/m2Arq/javax/servlet/servlet-api/2.5/servlet-api-2.5.jar:/usr/local/pr/bamboo/apache-maven-3.0.4/m2Arq/org/apache/cxf/cxf-rt-rs-extension-search/2.6.10/cxf-rt-rs-extension-search-2.6.10.jar:/usr/local/pr/bamboo/apache-maven-3.0.4/m2Arq/org/springframework/spring-web/3.2.3.RELEASE/spring-web-3.2.3.RELEASE.jar:/usr/local/pr/bamboo/apache-maven-3.0.4/m2Arq/com/bbva/jee/arq/spring/core/arq-spring-connector-semaas/3.7.1/arq-spring-connector-semaas-3.7.1.jar:/usr/local/pr/bamboo/apache-maven-3.0.4/m2Arq/com/googlecode/json-simple/json-simple/1.1.1/json-simple-1.1.1.jar:/usr/local/pr/bamboo/apache-maven-3.0.4/m2Arq/com/bbva/jee/arq/spring/core/arq-spring-connector-host-api/3.7.1/arq-spring-connector-host-api-3.7.1.jar:/usr/local/pr/bamboo/apache-maven-3.0.4/m2Arq/com/bbva/jee/arq/spring/core/arq-spring-connector-host/3.7.1/arq-spring-connector-host-3.7.1.jar:/usr/local/pr/bamboo/apache-maven-3.0.4/m2Arq/com/sun/jersey/jersey-client/1.19.2/jersey-client-1.19.2.jar:/usr/local/pr/bamboo/apache-maven-3.0.4/m2Arq/com/sun/jersey/jersey-core/1.19.2/jersey-core-1.19.2.jar:/usr/local/pr/bamboo/apache-maven-3.0.4/m2Arq/com/sun/jersey/contribs/jersey-multipart/1.19.2/jersey-multipart-1.19.2.jar:/usr/local/pr/bamboo/apache-maven-3.0.4/m2Arq/org/jvnet/mimepull/mimepull/1.9.3/mimepull-1.9.3.jar:/usr/local/pr/bamboo/apache-maven-3.0.4/m2Arq/com/sun/jersey/jersey-json/1.19.2/jersey-json-1.19.2.jar:/usr/local/pr/bamboo/apache-maven-3.0.4/m2Arq/org/codehaus/jettison/jettison/1.1/jettison-1.1.jar:/usr/local/pr/bamboo/apache-maven-3.0.4/m2Arq/com/bbva/jee/arq/spring/core/arq-spring-servicing-logging/3.7.0/arq-spring-servicing-logging-3.7.0.jar:/usr/local/pr/bamboo/apache-maven-3.0.4/m2Arq/org/mongodb/mongodb-driver/3.4.0/mongodb-driver-3.4.0.jar:/usr/local/pr/bamboo/apache-maven-3.0.4/m2Arq/org/mongodb/mongodb-driver-core/3.4.0/mongodb-driver-core-3.4.0.jar:/usr/local/pr/bamboo/apache-maven-3.0.4/m2Arq/org/mongodb/bson/3.4.0/bson-3.4.0.jar:/usr/local/pr/bamboo/apache-maven-3.0.4/m2Arq/com/fasterxml/jackson/core/jackson-core/2.1.5/jackson-core-2.1.5.jar:/usr/local/pr/bamboo/apache-maven-3.0.4/m2Arq/com/fasterxml/jackson/core/jackson-databind/2.1.5/jackson-databind-2.1.5.jar:/usr/local/pr/bamboo/apache-maven-3.0.4/m2Arq/com/fasterxml/jackson/core/jackson-annotations/2.1.5/jackson-annotations-2.1.5.jar:/usr/local/pr/bamboo/apache-maven-3.0.4/m2Arq/org/slf4j/slf4j-api/1.7.5/slf4j-api-1.7.5.jar:/usr/local/pr/bamboo/apache-maven-3.0.4/m2Arq/com/thoughtworks/xstream/xstream/1.3.1/xstream-1.3.1.jar:/usr/local/pr/bamboo/apache-maven-3.0.4/m2Arq/xpp3/xpp3_min/1.1.4c/xpp3_min-1.1.4c.jar:/usr/local/pr/bamboo/apache-maven-3.0.4/m2Arq/org/hibernate/javax/persistence/hibernate-jpa-2.0-api/1.0.0.Final/hibernate-jpa-2.0-api-1.0.0.Final.jar:/usr/local/pr/bamboo/apache-maven-3.0.4/m2Arq/cglib/cglib-nodep/2.2/cglib-nodep-2.2.jar:/usr/local/pr/bamboo/apache-maven-3.0.4/m2Arq/org/springframework/spring-aop/3.2.3.RELEASE/spring-aop-3.2.3.RELEASE.jar:/usr/local/pr/bamboo/apache-maven-3.0.4/m2Arq/org/springframework/spring-oxm/3.2.3.RELEASE/spring-oxm-3.2.3.RELEASE.jar:/usr/local/pr/bamboo/apache-maven-3.0.4/m2Arq/org/codehaus/jackson/jackson-jaxrs/1.8.0/jackson-jaxrs-1.8.0.jar:/usr/local/pr/bamboo/apache-maven-3.0.4/m2Arq/org/codehaus/jackson/jackson-mrbean/1.8.0/jackson-mrbean-1.8.0.jar:/usr/local/pr/bamboo/apache-maven-3.0.4/m2Arq/org/codehaus/jackson/jackson-smile/1.8.0/jackson-smile-1.8.0.jar:/usr/local/pr/bamboo/apache-maven-3.0.4/m2Arq/org/codehaus/jackson/jackson-xc/1.8.0/jackson-xc-1.8.0.jar:/usr/local/pr/bamboo/apache-maven-3.0.4/m2Arq/com/ibm/mq/7.0.1.7/mq-7.0.1.7.jar:/usr/local/pr/bamboo/apache-maven-3.0.4/m2Arq/com/ibm/mqjms/7.0.1.7/mqjms-7.0.1.7.jar:/usr/local/pr/bamboo/apache-maven-3.0.4/m2Arq/com/ibm/disthub2/dhbcore/7.0.1.7/dhbcore-7.0.1.7.jar:/usr/local/pr/bamboo/apache-maven-3.0.4/m2Arq/com/ibm/mq/jmqi/7.0.1.7/jmqi-7.0.1.7.jar:/usr/local/pr/bamboo/apache-maven-3.0.4/m2Arq/com/ibm/mq/headers/7.0.1.7/headers-7.0.1.7.jar:/usr/local/pr/bamboo/apache-maven-3.0.4/m2Arq/com/ibm/mq/commonservices/7.0.1.7/commonservices-7.0.1.7.jar:/usr/local/pr/bamboo/apache-maven-3.0.4/m2Arq/com/ibm/connector/1.3.0/connector-1.3.0.jar:/usr/local/pr/bamboo/apache-maven-3.0.4/m2Arq/javax/jms/javax.jms-api/2.0/javax.jms-api-2.0.jar:/usr/local/pr/bamboo/apache-maven-3.0.4/m2Arq/org/apache/cxf/cxf-rt-features-clustering/2.6.10/cxf-rt-features-clustering-2.6.10.jar:/usr/local/pr/bamboo/apache-maven-3.0.4/m2Arq/commons-pool/commons-pool/1.5.6/commons-pool-1.5.6.jar:/bamboo-home/xml-data/build-dir/QWJRAR-QSRVGLOB110-CLON/arq-spring-connector-rest/target/classes
-aspectpath
/usr/local/pr/bamboo/apache-maven-3.0.4/m2Arq/org/springframework/spring-aspects/3.2.3.RELEASE/spring-aspects-3.2.3.RELEASE.jar
-d
/bamboo-home/xml-data/build-dir/QWJRAR-QSRVGLOB110-CLON/arq-spring-connector-rest/target/classes
/bamboo-home/xml-data/build-dir/QWJRAR-QSRVGLOB110-CLON/arq-spring-connector-rest/src/main/java/com/bbva/jee/arq/spring/core/rest/RestConnectorType.java
/bamboo-home/xml-data/build-dir/QWJRAR-QSRVGLOB110-CLON/arq-spring-connector-rest/src/main/java/com/bbva/jee/arq/spring/core/rest/RestConnectorCertificate.java
/bamboo-home/xml-data/build-dir/QWJRAR-QSRVGLOB110-CLON/arq-spring-connector-rest/src/main/java/com/bbva/jee/arq/spring/core/rest/IRestConnector.java
/bamboo-home/xml-data/build-dir/QWJRAR-QSRVGLOB110-CLON/arq-spring-connector-rest/src/main/java/com/bbva/jee/arq/spring/core/rest/RestConnectorHeadersEnum.java
/bamboo-home/xml-data/build-dir/QWJRAR-QSRVGLOB110-CLON/arq-spring-connector-rest/src/main/java/com/bbva/jee/arq/spring/core/rest/RestConnector.java
/bamboo-home/xml-data/build-dir/QWJRAR-QSRVGLOB110-CLON/arq-spring-connector-rest/src/main/java/com/bbva/jee/arq/spring/core/rest/decorators/APXRestConnectorDecorator.java
/bamboo-home/xml-data/build-dir/QWJRAR-QSRVGLOB110-CLON/arq-spring-connector-rest/src/main/java/com/bbva/jee/arq/spring/core/rest/decorators/RestConnectorDecorator.java
/bamboo-home/xml-data/build-dir/QWJRAR-QSRVGLOB110-CLON/arq-spring-connector-rest/src/main/java/com/bbva/jee/arq/spring/core/rest/RestConnectorBasic.java
/bamboo-home/xml-data/build-dir/QWJRAR-QSRVGLOB110-CLON/arq-spring-connector-rest/src/main/java/com/bbva/jee/arq/spring/core/rest/RestConnectorResponse.java
/bamboo-home/xml-data/build-dir/QWJRAR-QSRVGLOB110-CLON/arq-spring-connector-rest/src/main/java/com/bbva/jee/arq/spring/core/rest/keystore/KeyStoreUtils.java
/bamboo-home/xml-data/build-dir/QWJRAR-QSRVGLOB110-CLON/arq-spring-connector-rest/src/main/java/com/bbva/jee/arq/spring/core/rest/RestConnectorImpl.java
/bamboo-home/xml-data/build-dir/QWJRAR-QSRVGLOB110-CLON/arq-spring-connector-rest/src/main/java/com/bbva/jee/arq/spring/core/rest/RestConnectorSalesforce.java
/bamboo-home/xml-data/build-dir/QWJRAR-QSRVGLOB110-CLON/arq-spring-connector-rest/src/main/java/com/bbva/jee/arq/spring/core/rest/RestConnectorOAuth.java
/bamboo-home/xml-data/build-dir/QWJRAR-QSRVGLOB110-CLON/arq-spring-connector-rest/src/main/java/com/bbva/jee/arq/spring/core/rest/backends/salesforce/credentials/SalesForceCredential.java
/bamboo-home/xml-data/build-dir/QWJRAR-QSRVGLOB110-CLON/arq-spring-connector-rest/src/main/java/com/bbva/jee/arq/spring/core/rest/backends/salesforce/AuthSalesForceREST.java
/bamboo-home/xml-data/build-dir/QWJRAR-QSRVGLOB110-CLON/arq-spring-connector-rest/src/main/java/com/bbva/jee/arq/spring/core/rest/utils/RestConnectorUtils.java
/bamboo-home/xml-data/build-dir/QWJRAR-QSRVGLOB110-CLON/arq-spring-connector-rest/src/main/java/com/bbva/jee/arq/spring/core/rest/RestConnectorFactory.java
/bamboo-home/xml-data/build-dir/QWJRAR-QSRVGLOB110-CLON/arq-spring-connector-rest/src/main/java/com/bbva/jee/arq/spring/core/rest/oauth/OAuthCredential.java
/bamboo-home/xml-data/build-dir/QWJRAR-QSRVGLOB110-CLON/arq-spring-connector-rest/src/main/java/com/bbva/jee/arq/spring/core/rest/oauth/AuthOAuthREST.java
/bamboo-home/xml-data/build-dir/QWJRAR-QSRVGLOB110-CLON/arq-spring-connector-rest/src/main/java/com/bbva/jee/arq/spring/core/rest/IProxyRestConnector.java
/bamboo-home/xml-data/build-dir/QWJRAR-QSRVGLOB110-CLON/arq-spring-connector-rest/src/main/java/com/bbva/jee/arq/spring/core/rest/AbstractRestConnector.java
/bamboo-home/xml-data/build-dir/QWJRAR-QSRVGLOB110-CLON/arq-spring-connector-rest/src/main/java/com/bbva/jee/arq/spring/core/auditoria/RestConnectorAuditingAspectBean.java
